{
  "project_info": {
    "project_number": "202002441731",
    "firebase_url": "https://appdasorte-4309c.firebaseio.com",
    "project_id": "appdasorte-4309c",
    "storage_bucket": "appdasorte-4309c.appspot.com"
  },
  "client": [
    {
      "client_info": {
        "mobilesdk_app_id": "1:202002441731:android:abe9f04b897a3a82",
        "android_client_info": {
          "package_name": "br.com.pernambucodasorte"
        }
      },
      "oauth_client": [
        {
          "client_id": "202002441731-0u5demuf9jg6n8mml879lvt96rn0o2ns.apps.googleusercontent.com",
          "client_type": 1,
          "android_info": {
            "package_name": "br.com.pernambucodasorte",
            "certificate_hash": "ecb518feda6c638627a43d2aee62d6c48382775a"
          }
        },
        {
          "client_id": "202002441731-1bcroj3p513sjj0sb7952o9ulaa4ghed.apps.googleusercontent.com",
          "client_type": 3
        }
      ],
      "api_key": [
        {
          "current_key": "AIzaSyAaZtoogq0t3-vP5NcafMazKxv8MfC1Z3o"
        }
      ],
      "services": {
        "analytics_service": {
          "status": 1
        },
        "appinvite_service": {
          "status": 2,
          "other_platform_oauth_client": [
            {
              "client_id": "202002441731-1bcroj3p513sjj0sb7952o9ulaa4ghed.apps.googleusercontent.com",
              "client_type": 3
            }
          ]
        },
        "ads_service": {
          "status": 2
        }
      }
    }
  ],
  "configuration_version": "1"
}