{
  "project_info": {
    "project_number": "943147883428",
    "firebase_url": "https://redepos-feede.firebaseio.com",
    "project_id": "redepos-feede",
    "storage_bucket": "redepos-feede.appspot.com"
  },
  "client": [
    {
      "client_info": {
        "mobilesdk_app_id": "1:943147883428:android:7ae4607fb125e8e575bf31",
        "android_client_info": {
          "package_name": "br.com.alagoasdasorte"
        }
      },
      "oauth_client": [
        {
          "client_id": "943147883428-n1qkhe8n0o423gik77df1d7g9864h9e7.apps.googleusercontent.com",
          "client_type": 3
        }
      ],
      "api_key": [
        {
          "current_key": "AIzaSyBi6SNXm99vG6OtiQ6gckvLqSA39M0BPas"
        }
      ],
      "services": {
        "appinvite_service": {
          "other_platform_oauth_client": [
            {
              "client_id": "943147883428-n1qkhe8n0o423gik77df1d7g9864h9e7.apps.googleusercontent.com",
              "client_type": 3
            },
            {
              "client_id": "943147883428-n6mna1sktje11k1r4msmf4gg0vrcq3d2.apps.googleusercontent.com",
              "client_type": 2,
              "ios_info": {
                "bundle_id": "br.com.pernambucodasorte"
              }
            }
          ]
        }
      }
    },
    {
      "client_info": {
        "mobilesdk_app_id": "1:943147883428:android:ac5d7b1489d8abdc75bf31",
        "android_client_info": {
          "package_name": "br.com.amazonasdasorte"
        }
      },
      "oauth_client": [
        {
          "client_id": "943147883428-n1qkhe8n0o423gik77df1d7g9864h9e7.apps.googleusercontent.com",
          "client_type": 3
        }
      ],
      "api_key": [
        {
          "current_key": "AIzaSyBi6SNXm99vG6OtiQ6gckvLqSA39M0BPas"
        }
      ],
      "services": {
        "appinvite_service": {
          "other_platform_oauth_client": [
            {
              "client_id": "943147883428-n1qkhe8n0o423gik77df1d7g9864h9e7.apps.googleusercontent.com",
              "client_type": 3
            },
            {
              "client_id": "943147883428-n6mna1sktje11k1r4msmf4gg0vrcq3d2.apps.googleusercontent.com",
              "client_type": 2,
              "ios_info": {
                "bundle_id": "br.com.pernambucodasorte"
              }
            }
          ]
        }
      }
    },
    {
      "client_info": {
        "mobilesdk_app_id": "1:943147883428:android:009dbc9a9081c90275bf31",
        "android_client_info": {
          "package_name": "br.com.bahiadasorte"
        }
      },
      "oauth_client": [
        {
          "client_id": "943147883428-n1qkhe8n0o423gik77df1d7g9864h9e7.apps.googleusercontent.com",
          "client_type": 3
        }
      ],
      "api_key": [
        {
          "current_key": "AIzaSyBi6SNXm99vG6OtiQ6gckvLqSA39M0BPas"
        }
      ],
      "services": {
        "appinvite_service": {
          "other_platform_oauth_client": [
            {
              "client_id": "943147883428-n1qkhe8n0o423gik77df1d7g9864h9e7.apps.googleusercontent.com",
              "client_type": 3
            },
            {
              "client_id": "943147883428-n6mna1sktje11k1r4msmf4gg0vrcq3d2.apps.googleusercontent.com",
              "client_type": 2,
              "ios_info": {
                "bundle_id": "br.com.pernambucodasorte"
              }
            }
          ]
        }
      }
    },
    {
      "client_info": {
        "mobilesdk_app_id": "1:943147883428:android:b7d173c90701bd6075bf31",
        "android_client_info": {
          "package_name": "br.com.capixabacap"
        }
      },
      "oauth_client": [
        {
          "client_id": "943147883428-n1qkhe8n0o423gik77df1d7g9864h9e7.apps.googleusercontent.com",
          "client_type": 3
        }
      ],
      "api_key": [
        {
          "current_key": "AIzaSyBi6SNXm99vG6OtiQ6gckvLqSA39M0BPas"
        }
      ],
      "services": {
        "appinvite_service": {
          "other_platform_oauth_client": [
            {
              "client_id": "943147883428-n1qkhe8n0o423gik77df1d7g9864h9e7.apps.googleusercontent.com",
              "client_type": 3
            },
            {
              "client_id": "943147883428-n6mna1sktje11k1r4msmf4gg0vrcq3d2.apps.googleusercontent.com",
              "client_type": 2,
              "ios_info": {
                "bundle_id": "br.com.pernambucodasorte"
              }
            }
          ]
        }
      }
    },
    {
      "client_info": {
        "mobilesdk_app_id": "1:943147883428:android:2c5bf2bb32d5048a75bf31",
        "android_client_info": {
          "package_name": "br.com.carimbodasorte"
        }
      },
      "oauth_client": [
        {
          "client_id": "943147883428-n1qkhe8n0o423gik77df1d7g9864h9e7.apps.googleusercontent.com",
          "client_type": 3
        }
      ],
      "api_key": [
        {
          "current_key": "AIzaSyBi6SNXm99vG6OtiQ6gckvLqSA39M0BPas"
        }
      ],
      "services": {
        "appinvite_service": {
          "other_platform_oauth_client": [
            {
              "client_id": "943147883428-n1qkhe8n0o423gik77df1d7g9864h9e7.apps.googleusercontent.com",
              "client_type": 3
            },
            {
              "client_id": "943147883428-n6mna1sktje11k1r4msmf4gg0vrcq3d2.apps.googleusercontent.com",
              "client_type": 2,
              "ios_info": {
                "bundle_id": "br.com.pernambucodasorte"
              }
            }
          ]
        }
      }
    },
    {
      "client_info": {
        "mobilesdk_app_id": "1:943147883428:android:f1724fe8bb9618ff75bf31",
        "android_client_info": {
          "package_name": "br.com.feiradasorte"
        }
      },
      "oauth_client": [
        {
          "client_id": "943147883428-n1qkhe8n0o423gik77df1d7g9864h9e7.apps.googleusercontent.com",
          "client_type": 3
        }
      ],
      "api_key": [
        {
          "current_key": "AIzaSyBi6SNXm99vG6OtiQ6gckvLqSA39M0BPas"
        }
      ],
      "services": {
        "appinvite_service": {
          "other_platform_oauth_client": [
            {
              "client_id": "943147883428-n1qkhe8n0o423gik77df1d7g9864h9e7.apps.googleusercontent.com",
              "client_type": 3
            },
            {
              "client_id": "943147883428-n6mna1sktje11k1r4msmf4gg0vrcq3d2.apps.googleusercontent.com",
              "client_type": 2,
              "ios_info": {
                "bundle_id": "br.com.pernambucodasorte"
              }
            }
          ]
        }
      }
    },
    {
      "client_info": {
        "mobilesdk_app_id": "1:943147883428:android:d77dc7289cfd89ee75bf31",
        "android_client_info": {
          "package_name": "br.com.goiasdasorte"
        }
      },
      "oauth_client": [
        {
          "client_id": "943147883428-n1qkhe8n0o423gik77df1d7g9864h9e7.apps.googleusercontent.com",
          "client_type": 3
        }
      ],
      "api_key": [
        {
          "current_key": "AIzaSyBi6SNXm99vG6OtiQ6gckvLqSA39M0BPas"
        }
      ],
      "services": {
        "appinvite_service": {
          "other_platform_oauth_client": [
            {
              "client_id": "943147883428-n1qkhe8n0o423gik77df1d7g9864h9e7.apps.googleusercontent.com",
              "client_type": 3
            },
            {
              "client_id": "943147883428-n6mna1sktje11k1r4msmf4gg0vrcq3d2.apps.googleusercontent.com",
              "client_type": 2,
              "ios_info": {
                "bundle_id": "br.com.pernambucodasorte"
              }
            }
          ]
        }
      }
    },
    {
      "client_info": {
        "mobilesdk_app_id": "1:943147883428:android:5d4e1b1ff1f950e375bf31",
        "android_client_info": {
          "package_name": "br.com.pernambucodasorte"
        }
      },
      "oauth_client": [
        {
          "client_id": "943147883428-n1qkhe8n0o423gik77df1d7g9864h9e7.apps.googleusercontent.com",
          "client_type": 3
        }
      ],
      "api_key": [
        {
          "current_key": "AIzaSyBi6SNXm99vG6OtiQ6gckvLqSA39M0BPas"
        }
      ],
      "services": {
        "appinvite_service": {
          "other_platform_oauth_client": [
            {
              "client_id": "943147883428-n1qkhe8n0o423gik77df1d7g9864h9e7.apps.googleusercontent.com",
              "client_type": 3
            },
            {
              "client_id": "943147883428-n6mna1sktje11k1r4msmf4gg0vrcq3d2.apps.googleusercontent.com",
              "client_type": 2,
              "ios_info": {
                "bundle_id": "br.com.pernambucodasorte"
              }
            }
          ]
        }
      }
    }
  ],
  "configuration_version": "1"
}